// Jest Snapshot v1, https://goo.gl/fbAQLP

exports[`App should mount without throwing an error 1`] = `
<MobxProvider>
  <ApolloProvider
    client={
      Object {
        "mutate": [MockFunction],
        "query": [MockFunction],
      }
    }
  >
    <RouterBase />
  </ApolloProvider>
</MobxProvider>
`;
