<?xml version="1.0" encoding="utf-8"?>
<!-- Generator: Adobe Illustrator 22.1.0, SVG Export Plug-In . SVG Version: 6.00 Build 0)  -->
<svg version="1.1" xmlns="http://www.w3.org/2000/svg" xmlns:xlink="http://www.w3.org/1999/xlink" x="0px" y="0px"
	 viewBox="0 0 1000 1000" style="enable-background:new 0 0 1000 1000;" xml:space="preserve">
<g fill="currentcolor" id="Content">
	<rect x="200" y="450" width="600" height="100"/>
	<rect x="200" y="250" width="600" height="100"/>
	<rect x="200" y="650" width="600" height="100"/>
</g>
</svg>
