<?xml version="1.0" encoding="utf-8"?>
<!-- Generator: Adobe Illustrator 22.1.0, SVG Export Plug-In . SVG Version: 6.00 Build 0)  -->
<svg version="1.1" xmlns="http://www.w3.org/2000/svg" xmlns:xlink="http://www.w3.org/1999/xlink" x="0px" y="0px"
	 viewBox="0 0 1000 1000" style="enable-background:new 0 0 1000 1000;" xml:space="preserve">
<g id="Content">
	<path fill="#CB3837" d="M200,383.3h600v200H500v33.3H366.7v-33.3H200V383.3z M233.3,550H300V450h33.3v100h33.3V416.7H233.3V550z
		 M400,416.7v166.7h66.7V550h66.7V416.7H400z M466.7,450H500v66.7h-33.3V450z M566.7,416.7V550h66.7V450h33.3v100H700V450h33.3v100
		h33.3V416.7H566.7z"/>
	<polygon fill="#FFF" points="233.3,550 300,550 300,450 333.3,450 333.3,550 366.7,550 366.7,416.7 233.3,416.7 	"/>
	<path fill="#FFF" d="M400,416.7v166.7h66.7V550h66.7V416.7H400z M500,516.7h-33.3V450H500V516.7z"/>
	<polygon fill="#FFF" points="566.7,416.7 566.7,550 633.3,550 633.3,450 666.7,450 666.7,550 700,550 700,450 733.3,450 733.3,550
		766.7,550 766.7,416.7 	"/>
</g>
</svg>
